1.000000000000000000e+02 3.672916999999999987e-01
2.000000000000000000e+02 7.079166999999999543e-01
4.000000000000000000e+02 1.281041600000000003e+00
8.000000000000000000e+02 2.770833200000000218e+00
1.600000000000000000e+03 8.032707999999999515e+00
