1.000000000000000000e+02 2.000000000000000042e-02
2.000000000000000000e+02 1.400000000000000133e-01
4.000000000000000000e+02 6.899999999999999467e-01
8.000000000000000000e+02 4.860000000000000320e+00
1.600000000000000000e+03 4.218999999999999773e+01
