1.000000000000000000e+00 9.490000000000000000e+06
2.000000000000000000e+00 9.745000000000000000e+06
4.000000000000000000e+00 5.542500000000000000e+06
8.000000000000000000e+00 2.915000000000000000e+06
