----------------------------------------
Begin Torque Prologue (Tue Dec  8 19:54:28 2015)
Job ID:           3434130.cc-mgmt1.campuscluster.illinois.edu
Username:         ywang148
Group:            cs-courses
Job Name:         project
Limits:           neednodes=4:ppn=2,nodes=4:ppn=2,walltime=00:30:00
Job Queue:        cs
Account:          cs-courses
Nodes:            golub293 golub295 golub296 golub297
End Torque Prologue
----------------------------------------
1
matrix size: 1024
--------------------------------
--------------------------------
--------------------------------
--------------------------------
--------------------------------
--------------------------------
--------------------------------

 test (serial) factorize_float_Time()

TEST CASE: 1

### Serial Householder QR will 1 omp threads
factorize ok!
serial: time cost 9320000 us
time cost: 9320000 us
--------------------------------
1
matrix size: 1024
--------------------------------
--------------------------------
--------------------------------
--------------------------------
--------------------------------
--------------------------------
--------------------------------

 test (serial) factorize_float_Time()

TEST CASE: 1

### Serial Householder QR will 2 omp threads
factorize ok!
serial: time cost 9490000 us
time cost: 9490000 us
--------------------------------
1
matrix size: 1024
--------------------------------
--------------------------------
--------------------------------
--------------------------------
--------------------------------
--------------------------------
--------------------------------

 test (serial) factorize_float_Time()

TEST CASE: 1

### Serial Householder QR will 4 omp threads
factorize ok!
serial: time cost 9410000 us
time cost: 9410000 us
--------------------------------
1
matrix size: 1024
--------------------------------
--------------------------------
--------------------------------
--------------------------------
--------------------------------
--------------------------------
--------------------------------

 test (serial) factorize_float_Time()

TEST CASE: 1

### Serial Householder QR will 6 omp threads
factorize ok!
serial: time cost 9420000 us
time cost: 9420000 us
--------------------------------
2
matrix size: 1024
matrix size: 1024
--------------------------------
----------------------------------------------------------------
--------------------------------

--------------------------------
--------------------------------
----------------------------------------------------------------
--------------------------------

--------------------------------
----------------------------------------------------------------
--------------------------------
--------------------------------


 test factorize_mpi_1D_float_Time() np 2 omp 1
TEST CASE: 1

### Householder QR will use 2 processes 1 omp threads
P[1]: time cost 6750000 us
--------------------------------
P[0]: time cost 6760000 us
sum. time cost: 13510000 us 
avg. time cost: 6755000.0 us 
--------------------------------
2
matrix size: 1024
matrix size: 1024
--------------------------------
----------------------------------------------------------------
--------------------------------

--------------------------------
--------------------------------
--------------------------------
--------------------------------
--------------------------------
--------------------------------
--------------------------------
--------------------------------
--------------------------------
--------------------------------

 test factorize_mpi_1D_float_Time() np 2 omp 2
TEST CASE: 1

### Householder QR will use 2 processes 2 omp threads
P[1]: time cost 9740000 us
--------------------------------
P[0]: time cost 9750000 us
sum. time cost: 19490000 us 
avg. time cost: 9745000.0 us 
--------------------------------
2
matrix size: 1024
matrix size: 1024
--------------------------------
----------------------------------------------------------------
--------------------------------

--------------------------------
--------------------------------
--------------------------------
--------------------------------
--------------------------------
--------------------------------
--------------------------------
--------------------------------
--------------------------------
--------------------------------

 test factorize_mpi_1D_float_Time() np 2 omp 4
TEST CASE: 1

### Householder QR will use 2 processes 4 omp threads
P[1]: time cost 6780000 us
--------------------------------
P[0]: time cost 6800000 us
sum. time cost: 13580000 us 
avg. time cost: 6790000.0 us 
--------------------------------
2
matrix size: 1024
matrix size: 1024
--------------------------------
----------------------------------------------------------------
--------------------------------

--------------------------------
--------------------------------
----------------------------------------------------------------
--------------------------------
--------------------------------
--------------------------------
--------------------------------

--------------------------------
--------------------------------

 test factorize_mpi_1D_float_Time() np 2 omp 6
TEST CASE: 1

### Householder QR will use 2 processes 6 omp threads
P[1]: time cost 6800000 us
--------------------------------
P[0]: time cost 6820000 us
sum. time cost: 13620000 us 
avg. time cost: 6810000.0 us 
--------------------------------
4
matrix size: 1024
matrix size: 1024
matrix size: 1024
matrix size: 1024
--------------------------------
--------------------------------
--------------------------------
--------------------------------
--------------------------------
--------------------------------
--------------------------------
--------------------------------
--------------------------------
--------------------------------
--------------------------------
--------------------------------
--------------------------------
--------------------------------
--------------------------------
--------------------------------
--------------------------------
--------------------------------
--------------------------------
--------------------------------
--------------------------------

 test factorize_mpi_1D_float_Time() np 4 omp 1
TEST CASE: 1

--------------------------------
--------------------------------
--------------------------------
--------------------------------
--------------------------------
--------------------------------
--------------------------------
### Householder QR will use 4 processes 1 omp threads
P[1]: time cost 3640000 us
--------------------------------
P[2]: time cost 3640000 us
P[3]: time cost 3640000 us
--------------------------------
--------------------------------
P[0]: time cost 3680000 us
sum. time cost: 14600000 us 
avg. time cost: 3650000.0 us 
--------------------------------
4
matrix size: 1024
matrix size: 1024
matrix size: 1024
matrix size: 1024
--------------------------------
--------------------------------
--------------------------------
----------------------------------------------------------------
--------------------------------
--------------------------------
--------------------------------
--------------------------------
--------------------------------
--------------------------------

--------------------------------
--------------------------------
--------------------------------
--------------------------------
--------------------------------
--------------------------------
--------------------------------
--------------------------------
--------------------------------
--------------------------------

 test factorize_mpi_1D_float_Time() np 4 omp 2
TEST CASE: 1

--------------------------------
--------------------------------
--------------------------------
--------------------------------
--------------------------------
--------------------------------
--------------------------------
### Householder QR will use 4 processes 2 omp threads
P[1]: time cost 4290000 us
--------------------------------
P[3]: time cost 6850000 us
--------------------------------
P[2]: time cost 6700000 us
--------------------------------
P[0]: time cost 4330000 us
sum. time cost: 22170000 us 
avg. time cost: 5542500.0 us 
--------------------------------
4
matrix size: 1024
matrix size: 1024
matrix size: 1024
matrix size: 1024
--------------------------------
--------------------------------
--------------------------------
--------------------------------
--------------------------------
--------------------------------
--------------------------------
--------------------------------
--------------------------------
--------------------------------
--------------------------------
--------------------------------
--------------------------------
--------------------------------
--------------------------------
--------------------------------
--------------------------------
--------------------------------
--------------------------------
--------------------------------
--------------------------------

 test factorize_mpi_1D_float_Time() np 4 omp 4
TEST CASE: 1

--------------------------------
--------------------------------
--------------------------------
--------------------------------
--------------------------------
--------------------------------
--------------------------------
### Householder QR will use 4 processes 4 omp threads
P[1]: time cost 2620000 us
--------------------------------
P[2]: time cost 7360000 us
P[3]: time cost 7640000 us
--------------------------------
--------------------------------
P[0]: time cost 2660000 us
sum. time cost: 20280000 us 
avg. time cost: 5070000.0 us 
--------------------------------
4
matrix size: 1024
matrix size: 1024
matrix size: 1024
matrix size: 1024
----------------------------------------------------------------
--------------------------------
--------------------------------
--------------------------------
--------------------------------
--------------------------------
--------------------------------

--------------------------------
--------------------------------
--------------------------------
--------------------------------
--------------------------------
--------------------------------

 test factorize_mpi_1D_float_Time() np 4 omp 6
TEST CASE: 1

--------------------------------
--------------------------------
--------------------------------
--------------------------------
--------------------------------
--------------------------------
--------------------------------
--------------------------------
--------------------------------
--------------------------------
--------------------------------
--------------------------------
--------------------------------
--------------------------------
### Householder QR will use 4 processes 6 omp threads
P[1]: time cost 2540000 us
--------------------------------
P[2]: time cost 9430000 us
P[3]: time cost 9770000 us
--------------------------------
--------------------------------
P[0]: time cost 2580000 us
sum. time cost: 24320000 us 
avg. time cost: 6080000.0 us 
--------------------------------
8
matrix size: 1024
matrix size: 1024
Warning: Permanently added 'golub293,72.36.102.36' (RSA) to the list of known hosts.
matrix size: 1024
matrix size: 1024
matrix size: 1024
matrix size: 1024
matrix size: 1024
matrix size: 1024
----------------------------------------------------------------
--------------------------------
--------------------------------
--------------------------------
--------------------------------
--------------------------------
--------------------------------

--------------------------------
--------------------------------
--------------------------------
--------------------------------
--------------------------------
--------------------------------

 test factorize_mpi_1D_float_Time() np 8 omp 1
TEST CASE: 1

--------------------------------
--------------------------------
--------------------------------
--------------------------------
--------------------------------
--------------------------------
--------------------------------
--------------------------------
--------------------------------
--------------------------------
--------------------------------
--------------------------------
--------------------------------
--------------------------------
--------------------------------
--------------------------------
--------------------------------
--------------------------------
--------------------------------
--------------------------------
--------------------------------
--------------------------------
--------------------------------
--------------------------------
--------------------------------
--------------------------------
--------------------------------
--------------------------------
--------------------------------
--------------------------------
--------------------------------
--------------------------------
----------------------------------------------------------------
--------------------------------
--------------------------------
--------------------------------

--------------------------------
--------------------------------
--------------------------------
--------------------------------
--------------------------------
### Householder QR will use 8 processes 1 omp threads
P[1]: time cost 1900000 us
--------------------------------
P[6]: time cost 1900000 us
P[2]: time cost 1920000 us
P[3]: time cost 1910000 us
P[7]: time cost 1910000 us
--------------------------------
--------------------------------
--------------------------------
--------------------------------
P[4]: time cost 1930000 us
P[5]: time cost 1950000 us
--------------------------------
--------------------------------
P[0]: time cost 2020000 us
sum. time cost: 15440000 us 
avg. time cost: 1930000.0 us 
--------------------------------
8
matrix size: 1024
matrix size: 1024
matrix size: 1024
matrix size: 1024
matrix size: 1024
matrix size: 1024
matrix size: 1024
matrix size: 1024
--------------------------------
--------------------------------
--------------------------------
----------------------------------------------------------------
--------------------------------
--------------------------------
--------------------------------
--------------------------------
--------------------------------
--------------------------------
--------------------------------
--------------------------------
--------------------------------
--------------------------------
--------------------------------
--------------------------------
--------------------------------
--------------------------------
--------------------------------
--------------------------------
--------------------------------
--------------------------------
--------------------------------
--------------------------------

--------------------------------
--------------------------------
--------------------------------
--------------------------------
--------------------------------
--------------------------------
--------------------------------
--------------------------------
--------------------------------
--------------------------------

 test factorize_mpi_1D_float_Time() np 8 omp 2
TEST CASE: 1

--------------------------------
--------------------------------
--------------------------------
--------------------------------
--------------------------------
--------------------------------
--------------------------------
--------------------------------
--------------------------------
--------------------------------
--------------------------------
--------------------------------
--------------------------------
--------------------------------
--------------------------------
--------------------------------
--------------------------------
--------------------------------
--------------------------------
--------------------------------
--------------------------------
### Householder QR will use 8 processes 2 omp threads
P[1]: time cost 2000000 us
--------------------------------
P[2]: time cost 2910000 us
P[6]: time cost 3320000 us
P[7]: time cost 3350000 us
--------------------------------
--------------------------------
P[3]: time cost 3080000 us
--------------------------------
--------------------------------
P[4]: time cost 3220000 us
P[5]: time cost 3330000 us
--------------------------------
--------------------------------
P[0]: time cost 2110000 us
sum. time cost: 23320000 us 
avg. time cost: 2915000.0 us 
--------------------------------
8
matrix size: 1024
matrix size: 1024
matrix size: 1024
matrix size: 1024
matrix size: 1024
matrix size: 1024
matrix size: 1024
matrix size: 1024
----------------------------------------------------------------
--------------------------------
--------------------------------
--------------------------------
--------------------------------
--------------------------------
--------------------------------

--------------------------------
--------------------------------
--------------------------------
--------------------------------
--------------------------------
--------------------------------

 test factorize_mpi_1D_float_Time() np 8 omp 4
TEST CASE: 1

--------------------------------
--------------------------------
--------------------------------
--------------------------------
--------------------------------
----------------------------------------------------------------
--------------------------------
--------------------------------
--------------------------------
--------------------------------
----------------------------------------------------------------
--------------------------------
--------------------------------
--------------------------------
--------------------------------
--------------------------------
--------------------------------
--------------------------------
--------------------------------
--------------------------------
--------------------------------
--------------------------------

--------------------------------
--------------------------------
--------------------------------

--------------------------------
--------------------------------
--------------------------------
--------------------------------
--------------------------------
--------------------------------
--------------------------------
--------------------------------
--------------------------------
--------------------------------
--------------------------------
--------------------------------
--------------------------------
--------------------------------
--------------------------------
### Householder QR will use 8 processes 4 omp threads
P[1]: time cost 1040000 us
P[6]: time cost 3510000 us
P[2]: time cost 2720000 us
P[7]: time cost 3540000 us
--------------------------------
--------------------------------
--------------------------------
P[3]: time cost 2990000 us
--------------------------------
--------------------------------
P[4]: time cost 3260000 us
P[5]: time cost 3420000 us
--------------------------------
--------------------------------
P[0]: time cost 1150000 us
sum. time cost: 21630000 us 
avg. time cost: 2703750.0 us 
--------------------------------
8
matrix size: 1024
matrix size: 1024
matrix size: 1024
matrix size: 1024
matrix size: 1024
matrix size: 1024
matrix size: 1024
matrix size: 1024
----------------------------------------------------------------
--------------------------------
--------------------------------
--------------------------------
--------------------------------
--------------------------------
--------------------------------
--------------------------------

--------------------------------
--------------------------------
--------------------------------
--------------------------------
--------------------------------

 test factorize_mpi_1D_float_Time() np 8 omp 6
TEST CASE: 1

--------------------------------
--------------------------------
--------------------------------
--------------------------------
--------------------------------
--------------------------------
--------------------------------
--------------------------------
--------------------------------
--------------------------------
--------------------------------
--------------------------------
--------------------------------
--------------------------------
--------------------------------
--------------------------------
--------------------------------
--------------------------------
--------------------------------
--------------------------------
--------------------------------
--------------------------------
--------------------------------
--------------------------------
--------------------------------
--------------------------------
--------------------------------
--------------------------------
--------------------------------
--------------------------------
--------------------------------
--------------------------------
--------------------------------
--------------------------------
--------------------------------
--------------------------------
--------------------------------
--------------------------------
--------------------------------
--------------------------------
--------------------------------
--------------------------------
### Householder QR will use 8 processes 6 omp threads
P[2]: time cost 3640000 us
P[1]: time cost 980000 us
--------------------------------
P[6]: time cost 4680000 us
P[7]: time cost 4730000 us
--------------------------------
--------------------------------
P[3]: time cost 4060000 us
--------------------------------
--------------------------------
P[4]: time cost 4350000 us
P[5]: time cost 4580000 us
--------------------------------
--------------------------------
P[0]: time cost 1100000 us
sum. time cost: 28120000 us 
avg. time cost: 3515000.0 us 
--------------------------------
----------------------------------------
Begin Torque Epilogue (Tue Dec  8 19:55:53 2015)
Job ID:           3434130.cc-mgmt1.campuscluster.illinois.edu
Username:         ywang148
Group:            cs-courses
Job Name:         project
Session:          18693
Limits:           neednodes=4:ppn=2,nodes=4:ppn=2,walltime=00:30:00
Resources:        cput=00:02:23,energy_used=0,mem=51460kb,vmem=444792kb,walltime=00:01:25
Job Queue:        cs
Account:          cs-courses
Nodes:            golub293 golub295 golub296 golub297
End Torque Epilogue
----------------------------------------
